<svg width="60" height="60" viewBox="0 0 60 60" fill="none" xmlns="http://www.w3.org/2000/svg">
<path fill-rule="evenodd" clip-rule="evenodd" d="M50.2792 18.3588C50.2792 24.5112 45.292 29.4984 39.1396 29.4984C32.9875 29.4984 28 24.5112 28 18.3588C28 12.2067 32.9875 7.21924 39.1396 7.21924C45.292 7.21924 50.2792 12.2067 50.2792 18.3588" fill="#FFD603"/>
<path fill-rule="evenodd" clip-rule="evenodd" d="M39.1396 7.49773C45.2452 7.49773 50.2009 12.4103 50.2756 18.4981C50.2761 18.4516 50.2792 18.4053 50.2792 18.3588C50.2792 12.2067 45.292 7.21924 39.1396 7.21924C32.9875 7.21924 28 12.2067 28 18.3588C28 18.4053 28.0031 18.4516 28.0036 18.4981C28.0785 12.4103 33.034 7.49773 39.1396 7.49773" fill="#FFDF39"/>
<path fill-rule="evenodd" clip-rule="evenodd" d="M39.1396 29.2203C45.2452 29.2203 50.2009 24.3078 50.2756 18.22C50.2761 18.2665 50.2792 18.3127 50.2792 18.3592C50.2792 24.5116 45.292 29.4988 39.1396 29.4988C32.9875 29.4988 28 24.5116 28 18.3592C28 18.3127 28.0031 18.2665 28.0036 18.22C28.0785 24.3078 33.034 29.2203 39.1396 29.2203" fill="#F2B603"/>
<rect opacity="0.2" x="0.5" y="0.5" width="59" height="59" stroke="black" stroke-opacity="0.01"/>
<rect x="8.94922" y="18.1904" width="47.8052" height="23.8094" rx="11.9047" fill="#DBDBDB"/>
<path fill-rule="evenodd" clip-rule="evenodd" d="M40.565 23.2686C40.565 33.6139 32.1791 41.9999 21.8338 41.9999C11.489 41.9999 3.10254 33.6139 3.10254 23.2686C3.10254 12.9238 11.489 4.53735 21.8338 4.53735C32.1791 4.53735 40.565 12.9238 40.565 23.2686" fill="#DBDBDB"/>
<rect x="8.9502" y="17.8003" width="47.8052" height="23.7916" rx="11.8958" fill="#FAFAFA"/>
<path fill-rule="evenodd" clip-rule="evenodd" d="M40.5641 22.7298C40.5641 33.0743 32.1788 41.4596 21.8343 41.4596C11.4903 41.4596 3.10449 33.0743 3.10449 22.7298C3.10449 12.3858 11.4903 4 21.8343 4C32.1788 4 40.5641 12.3858 40.5641 22.7298" fill="#FAFAFA"/>
<rect x="8.94922" y="18.0696" width="47.8052" height="23.7145" rx="11.8573" fill="#F5F5F5"/>
<path fill-rule="evenodd" clip-rule="evenodd" d="M40.565 23.034C40.565 33.3793 32.1791 41.7652 21.8338 41.7652C11.489 41.7652 3.10254 33.3793 3.10254 23.034C3.10254 12.6892 11.489 4.30273 21.8338 4.30273C32.1791 4.30273 40.565 12.6892 40.565 23.034" fill="#F5F5F5"/>
<path fill-rule="evenodd" clip-rule="evenodd" d="M40.4596 22.7305C40.4596 33.075 32.0743 41.4603 21.7298 41.4603C11.3858 41.4603 3 33.075 3 22.7305C3 12.3865 11.3858 4.00073 21.7298 4.00073C32.0743 4.00073 40.4596 12.3865 40.4596 22.7305" fill="#FAFAFA"/>
<path fill-rule="evenodd" clip-rule="evenodd" d="M40.4625 23.034C40.4625 33.3793 32.0765 41.7652 21.7312 41.7652C11.3864 41.7652 3 33.3793 3 23.034C3 12.6892 11.3864 4.30273 21.7312 4.30273C32.0765 4.30273 40.4625 12.6892 40.4625 23.034" fill="#F5F5F5"/>
<path d="M27.9999 55.9932C27.9999 57.4054 26.8808 58.5502 25.5004 58.5502C24.12 58.5502 23.001 57.4054 23.001 55.9932C23.001 54.581 25.5002 52 25.5002 52C25.5002 52 27.9999 54.581 27.9999 55.9932Z" fill="#66D0FF"/>
<path d="M27.9989 56.4429C27.9989 57.8551 26.8798 59 25.4994 59C24.119 59 23 57.8551 23 56.4429C23 55.0307 25.4992 52.4497 25.4992 52.4497C25.4992 52.4497 27.9989 55.0307 27.9989 56.4429Z" fill="#38A4E5"/>
<path d="M27.9989 56.2479C27.9989 57.6601 26.8798 58.8049 25.4994 58.8049C24.119 58.8049 23 57.6601 23 56.2479C23 54.8357 25.4992 52.2547 25.4992 52.2547C25.4992 52.2547 27.9989 54.8357 27.9989 56.2479Z" fill="#40C4FF"/>
<path d="M37.9999 55.9932C37.9999 57.4054 36.8808 58.5502 35.5004 58.5502C34.12 58.5502 33.001 57.4054 33.001 55.9932C33.001 54.581 35.5002 52 35.5002 52C35.5002 52 37.9999 54.581 37.9999 55.9932Z" fill="#66D0FF"/>
<path d="M37.9989 56.4429C37.9989 57.8551 36.8798 59 35.4994 59C34.119 59 33 57.8551 33 56.4429C33 55.0307 35.4992 52.4497 35.4992 52.4497C35.4992 52.4497 37.9989 55.0307 37.9989 56.4429Z" fill="#38A4E5"/>
<path d="M37.9989 56.2479C37.9989 57.6601 36.8798 58.8049 35.4994 58.8049C34.119 58.8049 33 57.6601 33 56.2479C33 54.8357 35.4992 52.2547 35.4992 52.2547C35.4992 52.2547 37.9989 54.8357 37.9989 56.2479Z" fill="#40C4FF"/>
<rect x="19.8701" y="44.1765" width="1.25901" height="6.82346" rx="0.629504" fill="#DDDDDD"/>
<rect width="1.19144" height="7.22567" rx="0.595718" transform="matrix(0.528357 0.849022 -0.881509 0.472168 23.3711 45.3765)" fill="#DDDDDD"/>
<rect width="1.19144" height="7.22567" rx="0.595718" transform="matrix(-0.528357 0.849022 0.881509 0.472168 17.6309 45.3765)" fill="#DDDDDD"/>
<rect x="19.8691" y="44" width="1.25901" height="6.82346" rx="0.629504" fill="#FAFAFA"/>
<rect width="1.19144" height="7.22567" rx="0.595718" transform="matrix(0.528357 0.849022 -0.881509 0.472168 23.3701 45.2)" fill="#FAFAFA"/>
<rect width="1.19144" height="7.22567" rx="0.595718" transform="matrix(-0.528357 0.849022 0.881509 0.472168 17.6299 45.2)" fill="#FAFAFA"/>
<rect x="19.8701" y="44.0854" width="1.25901" height="6.82346" rx="0.629504" fill="#F5F5F5"/>
<rect width="1.19144" height="7.22567" rx="0.595718" transform="matrix(0.528357 0.849022 -0.881509 0.472168 23.3711 45.2854)" fill="#F5F5F5"/>
<rect width="1.19144" height="7.22567" rx="0.595718" transform="matrix(-0.528357 0.849022 0.881509 0.472168 17.6309 45.2854)" fill="#F5F5F5"/>
<rect x="29.8691" y="44.1765" width="1.25901" height="6.82346" rx="0.629504" fill="#DDDDDD"/>
<rect width="1.19144" height="7.22567" rx="0.595718" transform="matrix(0.528357 0.849022 -0.881509 0.472168 33.3701 45.3765)" fill="#DDDDDD"/>
<rect width="1.19144" height="7.22567" rx="0.595718" transform="matrix(-0.528357 0.849022 0.881509 0.472168 27.6299 45.3765)" fill="#DDDDDD"/>
<rect x="29.8682" y="44" width="1.25901" height="6.82346" rx="0.629504" fill="#FAFAFA"/>
<rect width="1.19144" height="7.22567" rx="0.595718" transform="matrix(0.528357 0.849022 -0.881509 0.472168 33.3691 45.2)" fill="#FAFAFA"/>
<rect width="1.19144" height="7.22567" rx="0.595718" transform="matrix(-0.528357 0.849022 0.881509 0.472168 27.6289 45.2)" fill="#FAFAFA"/>
<rect x="29.8691" y="44.0854" width="1.25901" height="6.82346" rx="0.629504" fill="#F5F5F5"/>
<rect width="1.19144" height="7.22567" rx="0.595718" transform="matrix(0.528357 0.849022 -0.881509 0.472168 33.3701 45.2854)" fill="#F5F5F5"/>
<rect width="1.19144" height="7.22567" rx="0.595718" transform="matrix(-0.528357 0.849022 0.881509 0.472168 27.6299 45.2854)" fill="#F5F5F5"/>
<rect x="39.8682" y="44.1765" width="1.25901" height="6.82346" rx="0.629504" fill="#DDDDDD"/>
<rect width="1.19144" height="7.22567" rx="0.595718" transform="matrix(0.528357 0.849022 -0.881509 0.472168 43.3691 45.3765)" fill="#DDDDDD"/>
<rect width="1.19144" height="7.22567" rx="0.595718" transform="matrix(-0.528357 0.849022 0.881509 0.472168 37.6289 45.3765)" fill="#DDDDDD"/>
<rect x="39.8672" y="44" width="1.25901" height="6.82346" rx="0.629504" fill="#FAFAFA"/>
<rect width="1.19144" height="7.22567" rx="0.595718" transform="matrix(0.528357 0.849022 -0.881509 0.472168 43.3682 45.2)" fill="#FAFAFA"/>
<rect width="1.19144" height="7.22567" rx="0.595718" transform="matrix(-0.528357 0.849022 0.881509 0.472168 37.6279 45.2)" fill="#FAFAFA"/>
<rect x="39.8682" y="44.0854" width="1.25901" height="6.82346" rx="0.629504" fill="#F5F5F5"/>
<rect width="1.19144" height="7.22567" rx="0.595718" transform="matrix(0.528357 0.849022 -0.881509 0.472168 43.3691 45.2854)" fill="#F5F5F5"/>
<rect width="1.19144" height="7.22567" rx="0.595718" transform="matrix(-0.528357 0.849022 0.881509 0.472168 37.6289 45.2854)" fill="#F5F5F5"/>
</svg>
