<svg width="60" height="60" viewBox="0 0 60 60" fill="none" xmlns="http://www.w3.org/2000/svg">
<rect opacity="0.2" x="0.5" y="0.5" width="59" height="59" stroke="black" stroke-opacity="0.01"/>
<path fill-rule="evenodd" clip-rule="evenodd" d="M50.9997 20.9999C50.9997 32.5981 41.5981 41.9997 29.9999 41.9997C18.4022 41.9997 9 32.5981 9 20.9999C9 9.40216 18.4022 0 29.9999 0C41.5981 0 50.9997 9.40216 50.9997 20.9999" fill="#FFD603"/>
<path fill-rule="evenodd" clip-rule="evenodd" d="M29.9999 0.524997C41.5099 0.524997 50.8522 9.78594 50.9929 21.2624C50.994 21.1747 50.9997 21.0875 50.9997 20.9999C50.9997 9.40216 41.5981 0 29.9999 0C18.4022 0 9 9.40216 9 20.9999C9 21.0875 9.00577 21.1747 9.00682 21.2624C9.14805 9.78594 18.4898 0.524997 29.9999 0.524997" fill="#FFDF39"/>
<path fill-rule="evenodd" clip-rule="evenodd" d="M30.0008 41.4749C41.5109 41.4749 50.8532 32.214 50.9939 20.7375C50.9949 20.8252 51.0007 20.9124 51.0007 21C51.0007 32.5983 41.5991 41.9999 30.0008 41.9999C18.4031 41.9999 9.00098 32.5983 9.00098 21C9.00098 20.9124 9.00675 20.8252 9.0078 20.7375C9.14903 32.214 18.4908 41.4749 30.0008 41.4749" fill="#F2B603"/>
<rect x="20.5391" y="44.498" width="29.4603" height="5.22269" rx="2.61135" fill="#DDDDDD"/>
<rect x="20.5391" y="44" width="29.4603" height="5.22269" rx="2.61135" fill="#F6F6F6"/>
<rect x="20.5391" y="44.2329" width="29.4603" height="5.22269" rx="2.61135" fill="#F2F2F2"/>
<rect x="10" y="44.4983" width="5.92583" height="5.22269" rx="2.61135" fill="#DDDDDD"/>
<rect x="10" y="44.0002" width="5.92583" height="5.22269" rx="2.61135" fill="#F6F6F6"/>
<rect x="10" y="44.2332" width="5.92583" height="5.22269" rx="2.61135" fill="#F2F2F2"/>
<rect width="29.4603" height="5.22269" rx="2.61135" transform="matrix(-1 0 0 1 39.4609 53.498)" fill="#DDDDDD"/>
<rect width="29.4603" height="5.22269" rx="2.61135" transform="matrix(-1 0 0 1 39.4609 53)" fill="#F6F6F6"/>
<rect width="29.4603" height="5.22269" rx="2.61135" transform="matrix(-1 0 0 1 39.4609 53.2329)" fill="#F2F2F2"/>
<rect width="5.92583" height="5.22269" rx="2.61135" transform="matrix(-1 0 0 1 50 53.498)" fill="#DDDDDD"/>
<rect width="5.92583" height="5.22269" rx="2.61135" transform="matrix(-1 0 0 1 49.999 53)" fill="#F6F6F6"/>
<rect width="5.92583" height="5.22269" rx="2.61135" transform="matrix(-1 0 0 1 50 53.2329)" fill="#F2F2F2"/>
</svg>
