<svg width="60" height="60" viewBox="0 0 60 60" fill="none" xmlns="http://www.w3.org/2000/svg">
<rect opacity="0.2" x="0.5" y="0.5" width="59" height="59" stroke="black" stroke-opacity="0.01"/>
<rect x="8.94922" y="18.1904" width="47.8052" height="23.8094" rx="11.9047" fill="#DBDBDB"/>
<path fill-rule="evenodd" clip-rule="evenodd" d="M40.565 23.2686C40.565 33.6139 32.1791 41.9999 21.8338 41.9999C11.489 41.9999 3.10254 33.6139 3.10254 23.2686C3.10254 12.9238 11.489 4.53735 21.8338 4.53735C32.1791 4.53735 40.565 12.9238 40.565 23.2686" fill="#DBDBDB"/>
<rect x="8.9502" y="17.8003" width="47.8052" height="23.7916" rx="11.8958" fill="#FAFAFA"/>
<path fill-rule="evenodd" clip-rule="evenodd" d="M40.5641 22.7298C40.5641 33.0743 32.1788 41.4596 21.8343 41.4596C11.4903 41.4596 3.10449 33.0743 3.10449 22.7298C3.10449 12.3858 11.4903 4 21.8343 4C32.1788 4 40.5641 12.3858 40.5641 22.7298" fill="#FAFAFA"/>
<rect x="8.94922" y="18.0696" width="47.8052" height="23.7145" rx="11.8573" fill="#F5F5F5"/>
<path fill-rule="evenodd" clip-rule="evenodd" d="M40.565 23.034C40.565 33.3793 32.1791 41.7652 21.8338 41.7652C11.489 41.7652 3.10254 33.3793 3.10254 23.034C3.10254 12.6892 11.489 4.30273 21.8338 4.30273C32.1791 4.30273 40.565 12.6892 40.565 23.034" fill="#F5F5F5"/>
<rect x="10.9834" y="17.8005" width="46.1581" height="23.9841" rx="11.992" fill="#F5F5F5"/>
<mask id="mask0" mask-type="alpha" maskUnits="userSpaceOnUse" x="10" y="17" width="48" height="25">
<rect x="10.9834" y="17.8005" width="46.1581" height="23.9841" rx="11.992" fill="#F5F5F5"/>
</mask>
<g mask="url(#mask0)">
<rect opacity="0.4" x="9.16602" y="32.5903" width="32.0742" height="35.5695" transform="rotate(-45 9.16602 32.5903)" fill="url(#paint0_linear)"/>
</g>
<g opacity="0.3">
<mask id="mask1" mask-type="alpha" maskUnits="userSpaceOnUse" x="10" y="17" width="48" height="25">
<rect x="10.9834" y="17.8005" width="46.1581" height="23.9841" rx="11.992" fill="#F5F5F5"/>
</mask>
<g mask="url(#mask1)">
<g filter="url(#filter0_f)">
<path fill-rule="evenodd" clip-rule="evenodd" d="M40.4625 23.2688C40.4625 33.6141 32.0765 42.0001 21.7312 42.0001C11.3864 42.0001 3 33.6141 3 23.2688C3 12.924 11.3864 4.5376 21.7312 4.5376C32.0765 4.5376 40.4625 12.924 40.4625 23.2688" fill="#030303"/>
</g>
</g>
</g>
<path fill-rule="evenodd" clip-rule="evenodd" d="M40.4625 23.2686C40.4625 33.6139 32.0765 41.9999 21.7312 41.9999C11.3864 41.9999 3 33.6139 3 23.2686C3 12.9238 11.3864 4.53735 21.7312 4.53735C32.0765 4.53735 40.4625 12.9238 40.4625 23.2686" fill="#DBDBDB"/>
<path fill-rule="evenodd" clip-rule="evenodd" d="M40.4596 22.7305C40.4596 33.075 32.0743 41.4603 21.7298 41.4603C11.3858 41.4603 3 33.075 3 22.7305C3 12.3865 11.3858 4.00073 21.7298 4.00073C32.0743 4.00073 40.4596 12.3865 40.4596 22.7305" fill="#FAFAFA"/>
<path fill-rule="evenodd" clip-rule="evenodd" d="M40.4625 23.034C40.4625 33.3793 32.0765 41.7652 21.7312 41.7652C11.3864 41.7652 3 33.3793 3 23.034C3 12.6892 11.3864 4.30273 21.7312 4.30273C32.0765 4.30273 40.4625 12.6892 40.4625 23.034" fill="#F5F5F5"/>
<path d="M22.9999 50.9932C22.9999 52.4054 21.8808 53.5502 20.5004 53.5502C19.12 53.5502 18.001 52.4054 18.001 50.9932C18.001 49.581 20.5002 47 20.5002 47C20.5002 47 22.9999 49.581 22.9999 50.9932Z" fill="#66D0FF"/>
<path d="M22.9989 51.4429C22.9989 52.8551 21.8798 54 20.4994 54C19.119 54 18 52.8551 18 51.4429C18 50.0307 20.4992 47.4497 20.4992 47.4497C20.4992 47.4497 22.9989 50.0307 22.9989 51.4429Z" fill="#38A4E5"/>
<path d="M22.9989 51.2479C22.9989 52.6601 21.8798 53.8049 20.4994 53.8049C19.119 53.8049 18 52.6601 18 51.2479C18 49.8357 20.4992 47.2547 20.4992 47.2547C20.4992 47.2547 22.9989 49.8357 22.9989 51.2479Z" fill="#40C4FF"/>
<path d="M32.9999 50.9932C32.9999 52.4054 31.8808 53.5502 30.5004 53.5502C29.12 53.5502 28.001 52.4054 28.001 50.9932C28.001 49.581 30.5002 47 30.5002 47C30.5002 47 32.9999 49.581 32.9999 50.9932Z" fill="#66D0FF"/>
<path d="M32.9989 51.4429C32.9989 52.8551 31.8798 54 30.4994 54C29.119 54 28 52.8551 28 51.4429C28 50.0307 30.4992 47.4497 30.4992 47.4497C30.4992 47.4497 32.9989 50.0307 32.9989 51.4429Z" fill="#38A4E5"/>
<path d="M32.9989 51.2479C32.9989 52.6601 31.8798 53.8049 30.4994 53.8049C29.119 53.8049 28 52.6601 28 51.2479C28 49.8357 30.4992 47.2547 30.4992 47.2547C30.4992 47.2547 32.9989 49.8357 32.9989 51.2479Z" fill="#40C4FF"/>
<path d="M42.9999 50.9932C42.9999 52.4054 41.8808 53.5502 40.5004 53.5502C39.12 53.5502 38.001 52.4054 38.001 50.9932C38.001 49.581 40.5002 47 40.5002 47C40.5002 47 42.9999 49.581 42.9999 50.9932Z" fill="#66D0FF"/>
<path d="M42.9989 51.4429C42.9989 52.8551 41.8798 54 40.4994 54C39.119 54 38 52.8551 38 51.4429C38 50.0307 40.4992 47.4497 40.4992 47.4497C40.4992 47.4497 42.9989 50.0307 42.9989 51.4429Z" fill="#38A4E5"/>
<path d="M42.9989 51.2479C42.9989 52.6601 41.8798 53.8049 40.4994 53.8049C39.119 53.8049 38 52.6601 38 51.2479C38 49.8357 40.4992 47.2547 40.4992 47.2547C40.4992 47.2547 42.9989 49.8357 42.9989 51.2479Z" fill="#40C4FF"/>
<defs>
<filter id="filter0_f" x="-3" y="-1.4624" width="49.4625" height="49.4625" filterUnits="userSpaceOnUse" color-interpolation-filters="sRGB">
<feFlood flood-opacity="0" result="BackgroundImageFix"/>
<feBlend mode="normal" in="SourceGraphic" in2="BackgroundImageFix" result="shape"/>
<feGaussianBlur stdDeviation="3" result="effect1_foregroundBlur"/>
</filter>
<linearGradient id="paint0_linear" x1="25.2031" y1="32.5903" x2="25.2031" y2="68.1599" gradientUnits="userSpaceOnUse">
<stop stop-color="#C4C4C4"/>
<stop offset="1" stop-color="#C4C4C4" stop-opacity="0"/>
</linearGradient>
</defs>
</svg>
